<?xml version="1.0" encoding="UTF-8"?>
<testsuite xmlns:xsi="http://www.w3.org/2001/XMLSchema-instance" xsi:schemaLocation="https://maven.apache.org/surefire/maven-surefire-plugin/xsd/surefire-test-report.xsd" name="TestSuite" time="45.865" tests="12" errors="0" skipped="0" failures="6">
  <properties>
    <property name="java.vendor" value="Oracle Corporation"/>
    <property name="JOB_NAME" value="ClinicsAPISyntheticMonitoring"/>
    <property name="sun.java.launcher" value="SUN_STANDARD"/>
    <property name="NUMBER_OF_PROCESSORS" value="4"/>
    <property name="sun.management.compiler" value="HotSpot 64-Bit Tiered Compilers"/>
    <property name="JENKINS_HOME" value="C:\Users\Ganesh\.jenkins"/>
    <property name="HUDSON_SERVER_COOKIE" value="3e902c734b6b5361"/>
    <property name="POM_ARTIFACTID" value="ConsumerApiTesting"/>
    <property name="os.name" value="Windows 8.1"/>
    <property name="sun.boot.class.path" value="C:\Program Files\Java\jre1.8.0_101\lib\resources.jar;C:\Program Files\Java\jre1.8.0_101\lib\rt.jar;C:\Program Files\Java\jre1.8.0_101\lib\sunrsasign.jar;C:\Program Files\Java\jre1.8.0_101\lib\jsse.jar;C:\Program Files\Java\jre1.8.0_101\lib\jce.jar;C:\Program Files\Java\jre1.8.0_101\lib\charsets.jar;C:\Program Files\Java\jre1.8.0_101\lib\jfr.jar;C:\Program Files\Java\jre1.8.0_101\classes"/>
    <property name="EXECUTOR_NUMBER" value="6"/>
    <property name="sun.desktop" value="windows"/>
    <property name="PATHEXT" value=".COM;.EXE;.BAT;.CMD;.VBS;.VBE;.JS;.JSE;.WSF;.WSH;.MSC"/>
    <property name="java.vm.specification.vendor" value="Oracle Corporation"/>
    <property name="POM_DISPLAYNAME" value="ConsumerApiTesting"/>
    <property name="NODE_LABELS" value="master"/>
    <property name="TEMP" value="C:\Users\Ganesh\AppData\Local\Temp"/>
    <property name="java.runtime.version" value="1.8.0_101-b13"/>
    <property name="ROOT_BUILD_CAUSE" value="TIMERTRIGGER"/>
    <property name="ANT_HOME" value="C:\Program Files\apache-ant-1.9.7"/>
    <property name="user.name" value="Ganesh"/>
    <property name="guice.disable.misplaced.annotation.check" value="true"/>
    <property name="CommonProgramW6432" value="C:\Program Files\Common Files"/>
    <property name="ProgramFiles" value="C:\Program Files"/>
    <property name="PROMPT" value="$P$G"/>
    <property name="user.language" value="en"/>
    <property name="JOB_BASE_NAME" value="ClinicsAPISyntheticMonitoring"/>
    <property name="BUILD_DISPLAY_NAME" value="#612"/>
    <property name="sun.boot.library.path" value="C:\Program Files\Java\jre1.8.0_101\bin"/>
    <property name="DOCKER_TOOLBOX_INSTALL_PATH" value="C:\Program Files\Docker Toolbox"/>
    <property name="LOCALAPPDATA" value="C:\Users\Ganesh\AppData\Local"/>
    <property name="java.version" value="1.8.0_101"/>
    <property name="PROCESSOR_LEVEL" value="6"/>
    <property name="user.timezone" value="Asia/Calcutta"/>
    <property name="USERNAME" value="Ganesh"/>
    <property name="sun.arch.data.model" value="64"/>
    <property name="NODE_NAME" value="master"/>
    <property name="java.endorsed.dirs" value="C:\Program Files\Java\jre1.8.0_101\lib\endorsed"/>
    <property name="UOIPME_REG_PATH" value="C:\Program Files\Intel Corporation\USB over IP"/>
    <property name="BUILD_ID" value="612"/>
    <property name="sun.cpu.isalist" value="amd64"/>
    <property name="sun.jnu.encoding" value="Cp1252"/>
    <property name="file.encoding.pkg" value="sun.io"/>
    <property name="file.separator" value="\"/>
    <property name="ROOT_BUILD_CAUSE_TIMERTRIGGER" value="true"/>
    <property name="java.specification.name" value="Java Platform API Specification"/>
    <property name="HOMEDRIVE" value="C:"/>
    <property name="java.class.version" value="52.0"/>
    <property name="=::" value="::\"/>
    <property name="org.slf4j.simpleLogger.defaultLogLevel" value="info"/>
    <property name="user.country" value="US"/>
    <property name="ALLUSERSPROFILE" value="C:\ProgramData"/>
    <property name="java.home" value="C:\Program Files\Java\jre1.8.0_101"/>
    <property name="java.vm.info" value="mixed mode"/>
    <property name="os.version" value="6.3"/>
    <property name="POM_VERSION" value="0.0.1-SNAPSHOT"/>
    <property name="TMP" value="C:\Users\Ganesh\AppData\Local\Temp"/>
    <property name="path.separator" value=";"/>
    <property name="java.vm.version" value="25.101-b13"/>
    <property name="user.variant" value=""/>
    <property name="CommonProgramFiles(x86)" value="C:\Program Files (x86)\Common Files"/>
    <property name="USERDOMAIN_ROAMINGPROFILE" value="Dell"/>
    <property name="java.awt.printerjob" value="sun.awt.windows.WPrinterJob"/>
    <property name="FP_NO_HOST_CHECK" value="NO"/>
    <property name="JAVA_HOME" value="C:\Program Files\Java\jdk1.8.0_101"/>
    <property name="sun.io.unicode.encoding" value="UnicodeLittle"/>
    <property name="CommonProgramFiles" value="C:\Program Files\Common Files"/>
    <property name="ComSpec" value="C:\WINDOWS\system32\cmd.exe"/>
    <property name="HOMEPATH" value="\Users\Ganesh"/>
    <property name="awt.toolkit" value="sun.awt.windows.WToolkit"/>
    <property name="POM_PACKAGING" value="jar"/>
    <property name="user.script" value=""/>
    <property name="COMPUTERNAME" value="DELL"/>
    <property name="POM_GROUPID" value="ConsumerApiTesting"/>
    <property name="user.home" value="C:\Users\Ganesh"/>
    <property name="PUBLIC" value="C:\Users\Public"/>
    <property name="BUILD_TAG" value="jenkins-ClinicsAPISyntheticMonitoring-612"/>
    <property name="JENKINS_SERVER_COOKIE" value="3e902c734b6b5361"/>
    <property name="=E:" value="E:\IMP"/>
    <property name="HUDSON_URL" value="http://localhost:8080/"/>
    <property name="ProgramData" value="C:\ProgramData"/>
    <property name="java.specification.vendor" value="Oracle Corporation"/>
    <property name="USERPROFILE" value="C:\Users\Ganesh"/>
    <property name="CLASSPATH" value=""/>
    <property name="java.vendor.url" value="http://java.oracle.com/"/>
    <property name="java.library.path" value="C:\ProgramData\Oracle\Java\javapath;C:\WINDOWS\Sun\Java\bin;C:\WINDOWS\system32;C:\WINDOWS;C:\Program Files\apache-maven-3.3.9\bin\../bin;C:\ProgramData\Oracle\Java\javapath;C:\Program Files (x86)\Intel\iCLS Client\;C:\Program Files\Intel\iCLS Client\;C:\WINDOWS\system32;C:\WINDOWS;C:\WINDOWS\System32\Wbem;C:\WINDOWS\System32\WindowsPowerShell\v1.0\;C:\Program Files\Intel\Intel(R) Management Engine Components\DAL;C:\Program Files (x86)\Intel\Intel(R) Management Engine Components\DAL;C:\Program Files\Intel\Intel(R) Management Engine Components\IPT;C:\Program Files (x86)\Intel\Intel(R) Management Engine Components\IPT;C:\Program Files\Intel\WiFi\bin\;C:\Program Files\Common Files\Intel\WirelessCommon\;C:\Program Files\Java\jdk1.8.0_101\bin;C:\Program Files\apache-ant-1.9.7\bin;C:\Program Files\apache-maven-3.3.9\bin;C:\Go\bin;C:\Python27;E:\sdk;C:\Program Files (x86)\Skype\Phone\;C:\Program Files\Git\cmd;C:\Program Files\TortoiseGit\bin;E:\tata_Backup\Ganesh\backup\sdk\tools;E:\tata_Backup\Ganesh\backup\sdk\platform-tools;;C:\Program Files\Docker Toolbox;."/>
    <property name="java.vm.vendor" value="Oracle Corporation"/>
    <property name="APPDATA" value="C:\Users\Ganesh\AppData\Roaming"/>
    <property name="java.runtime.name" value="Java(TM) SE Runtime Environment"/>
    <property name="maven.home" value="C:\Program Files\apache-maven-3.3.9"/>
    <property name="java.class.path" value="C:\Users\Ganesh\.jenkins\plugins\maven-plugin\WEB-INF\lib\maven33-agent-1.8.1.jar;C:\Program Files\apache-maven-3.3.9\bin\..\boot\plexus-classworlds-2.5.2.jar;C:\Program Files\apache-maven-3.3.9\bin\../conf/logging"/>
    <property name="sun.java.command" value="jenkins.maven3.agent.Maven33Main C:\Program Files\apache-maven-3.3.9\bin\.. C:\Users\Ganesh\.jenkins\war\WEB-INF\lib\remoting-3.3.jar C:\Users\Ganesh\.jenkins\plugins\maven-plugin\WEB-INF\lib\maven33-interceptor-1.8.1.jar C:\Users\Ganesh\.jenkins\plugins\maven-plugin\WEB-INF\lib\maven3-interceptor-commons-1.8.1.jar 61645"/>
    <property name="GOROOT" value="C:\Go\"/>
    <property name="Path" value="C:\ProgramData\Oracle\Java\javapath;C:\Program Files (x86)\Intel\iCLS Client\;C:\Program Files\Intel\iCLS Client\;C:\WINDOWS\system32;C:\WINDOWS;C:\WINDOWS\System32\Wbem;C:\WINDOWS\System32\WindowsPowerShell\v1.0\;C:\Program Files\Intel\Intel(R) Management Engine Components\DAL;C:\Program Files (x86)\Intel\Intel(R) Management Engine Components\DAL;C:\Program Files\Intel\Intel(R) Management Engine Components\IPT;C:\Program Files (x86)\Intel\Intel(R) Management Engine Components\IPT;C:\Program Files\Intel\WiFi\bin\;C:\Program Files\Common Files\Intel\WirelessCommon\;C:\Program Files\Java\jdk1.8.0_101\bin;C:\Program Files\apache-ant-1.9.7\bin;C:\Program Files\apache-maven-3.3.9\bin;C:\Go\bin;C:\Python27;E:\sdk;C:\Program Files (x86)\Skype\Phone\;C:\Program Files\Git\cmd;C:\Program Files\TortoiseGit\bin;E:\tata_Backup\Ganesh\backup\sdk\tools;E:\tata_Backup\Ganesh\backup\sdk\platform-tools;;C:\Program Files\Docker Toolbox"/>
    <property name="BUILD_CAUSE_TIMERTRIGGER" value="true"/>
    <property name="java.vm.specification.name" value="Java Virtual Machine Specification"/>
    <property name="PROCESSOR_ARCHITECTURE" value="AMD64"/>
    <property name="PROCESSOR_IDENTIFIER" value="Intel64 Family 6 Model 61 Stepping 4, GenuineIntel"/>
    <property name="SESSIONNAME" value="Console"/>
    <property name="java.vm.specification.version" value="1.8"/>
    <property name="sun.os.patch.level" value=""/>
    <property name="sun.cpu.endian" value="little"/>
    <property name="M2_HOME" value="C:\Program Files\apache-maven-3.3.9\bin\.."/>
    <property name="java.io.tmpdir" value="C:\Users\Ganesh\AppData\Local\Temp\"/>
    <property name="OS" value="Windows_NT"/>
    <property name="HUDSON_HOME" value="C:\Users\Ganesh\.jenkins"/>
    <property name="PATH+MAVEN" value="C:\Program Files\apache-maven-3.3.9\bin\../bin"/>
    <property name="ProgramFiles(x86)" value="C:\Program Files (x86)"/>
    <property name="BUILD_URL" value="http://localhost:8080/job/ClinicsAPISyntheticMonitoring/612/"/>
    <property name="java.vendor.url.bug" value="http://bugreport.sun.com/bugreport/"/>
    <property name="java.awt.graphicsenv" value="sun.awt.Win32GraphicsEnvironment"/>
    <property name="os.arch" value="amd64"/>
    <property name="SystemRoot" value="C:\WINDOWS"/>
    <property name="java.ext.dirs" value="C:\Program Files\Java\jre1.8.0_101\lib\ext;C:\WINDOWS\Sun\Java\lib\ext"/>
    <property name="user.dir" value="E:\workspace\ClinicApiSyntheticMonitoring"/>
    <property name="JOB_URL" value="http://localhost:8080/job/ClinicsAPISyntheticMonitoring/"/>
    <property name="LOGONSERVER" value="\\DELL"/>
    <property name="USERDOMAIN" value="Dell"/>
    <property name="line.separator" value="&#10;"/>
    <property name="MAVEN_HOME" value="C:\Program Files\apache-maven-3.3.9\bin\.."/>
    <property name="java.vm.name" value="Java HotSpot(TM) 64-Bit Server VM"/>
    <property name="BUILD_NUMBER" value="612"/>
    <property name="ANDROID_HOME" value="E:\tata_Backup\Ganesh\backup\sdk"/>
    <property name="JENKINS_URL" value="http://localhost:8080/"/>
    <property name="PROCESSOR_REVISION" value="3d04"/>
    <property name="ProgramW6432" value="C:\Program Files"/>
    <property name="windir" value="C:\WINDOWS"/>
    <property name="=C:" value="C:\"/>
    <property name="file.encoding" value="Cp1252"/>
    <property name="SystemDrive" value="C:"/>
    <property name="maven3.interceptor" value="C:\Users\Ganesh\.jenkins\plugins\maven-plugin\WEB-INF\lib\maven33-interceptor-1.8.1.jar"/>
    <property name="WORKSPACE" value="C:\Users\Ganesh\.jenkins\jobs\ClinicsAPISyntheticMonitoring\workspace"/>
    <property name="maven3.interceptor.common" value="C:\Users\Ganesh\.jenkins\plugins\maven-plugin\WEB-INF\lib\maven3-interceptor-commons-1.8.1.jar"/>
    <property name="java.specification.version" value="1.8"/>
    <property name="PSModulePath" value="C:\WINDOWS\system32\WindowsPowerShell\v1.0\Modules\"/>
    <property name="BUILD_CAUSE" value="TIMERTRIGGER"/>
  </properties>
  <testcase name="login" classname="com.tata.scripts.SyntheticMonitoring" time="1.806"/>
  <testcase name="PatientSearch" classname="com.tata.scripts.SyntheticMonitoring" time="0.826"/>
  <testcase name="appointmentHomeDoctor" classname="com.tata.scripts.SyntheticMonitoring" time="7.58">
    <failure message="JSONObject[&quot;bookedSlots&quot;] not found." type="org.json.JSONException">org.json.JSONException: JSONObject["bookedSlots"] not found.
	at com.tata.scripts.SyntheticMonitoring.appointmentHomeDoctor(SyntheticMonitoring.java:151)
</failure>
    <system-out><![CDATA[UseCase :appointmentHomeDoctor [Start]
mailUrl http://publicnlb-346685869.ap-south-1.elb.amazonaws.com:9090/HPPClinicsAppointmentsRestApp/rest/clinicAppointments/appointmentHomeDoctor
begin
request url  http://publicnlb-346685869.ap-south-1.elb.amazonaws.com:9090/HPPClinicsAppointmentsRestApp/rest/clinicAppointments/appointmentHomeDoctor
Request Message:{"organisationId":"11","clinicUserId":"44","userLoginName":"asc3","userId":"44","appointmentDate":"08-12-2016","token":"ASC3_993cbbb4-b514-458d-9c46-81523bcad602"}
Request Header for Post:
UserAgent: HTTP Client
Content-Type: application/json
Request-Date: 2017-03-14 10:40:23
HTTP/1.1 500 Internal Server Error
STATUS CODE:500
Response Header:
Key : Content-Type ,Value : application/json
Key : Date ,Value : Tue, 14 Mar 2017 05:10:18 GMT
Key : Server ,Value : WildFly/10
Key : X-Powered-By ,Value : Undertow/1
Key : Content-Length ,Value : 82
Key : Connection ,Value : keep-alive
Response:{"errorCode":10058,"errorMessage":"Doctor hasn't provided timings for this date."}
Failure list
Done
Done
UseCase :appointmentHomeDoctor [Failure]
]]></system-out>
  </testcase>
  <testcase name="logout" classname="com.tata.scripts.SyntheticMonitoring" time="0.457"/>
  <testcase name="loginVer12" classname="com.tata.scripts.SyntheticMonitoring" time="8.931">
    <failure message="JSONObject[&quot;token&quot;] not found." type="org.json.JSONException">org.json.JSONException: JSONObject["token"] not found.
	at com.tata.scripts.SyntheticMonitoring.loginVer12(SyntheticMonitoring.java:210)
</failure>
    <system-out><![CDATA[UseCase :loginVer12 [Start]
mailUrl http://publicnlb-346685869.ap-south-1.elb.amazonaws.com:9090/HPPClinicsCARestApp/rest/clinicAdministration/1.2/appLogin
begin
request url  http://publicnlb-346685869.ap-south-1.elb.amazonaws.com:9090/HPPClinicsCARestApp/rest/clinicAdministration/1.2/appLogin
Request Message:{"password":"1234","userLoginName":"asc3"}
Request Header for Post:
UserAgent: HTTP Client
Content-Type: application/json
Request-Date: 2017-03-14 10:40:34
HTTP/1.1 500 Internal Server Error
STATUS CODE:500
Response Header:
Key : Content-Type ,Value : application/json
Key : Date ,Value : Tue, 14 Mar 2017 05:10:29 GMT
Key : Server ,Value : WildFly/10
Key : X-Powered-By ,Value : Undertow/1
Key : Content-Length ,Value : 110
Key : Connection ,Value : keep-alive
Response:{"errorCode":404,"errorMessage":"clinicAdministration/appLogin  1.2 is unsupported,please upgrade to 2.0,1.3"}
Failure list
Done
Done
UseCase :loginVer12 [Failure]
]]></system-out>
  </testcase>
  <testcase name="PatientSearchVer12" classname="com.tata.scripts.SyntheticMonitoring" time="6.241">
    <failure message="JSONObject[&quot;patientList&quot;] not found." type="org.json.JSONException">org.json.JSONException: JSONObject["patientList"] not found.
	at com.tata.scripts.SyntheticMonitoring.PatientSearchVer12(SyntheticMonitoring.java:253)
</failure>
    <system-out><![CDATA[UseCase :PatientSearchVer12 [Start]
mailUrl http://publicnlb-346685869.ap-south-1.elb.amazonaws.com:9090/HPPClinicsAppointmentsRestApp/rest/clinicAppointments/1.2/patientSearch
begin
req:{"patient":{"patientName":"s","gender":"Male","dob":"","uhid":"","mobileNo":""}}
request url  http://publicnlb-346685869.ap-south-1.elb.amazonaws.com:9090/HPPClinicsAppointmentsRestApp/rest/clinicAppointments/1.2/patientSearch
Request Message:{"startIndex":"1","organisationId":"11","patient":{"patientName":"s","gender":"Male","dob":"","uhid":"","mobileNo":""},"hmFlag":"n","userLoginName":"asc3","interval":"10","userId":"44","token":"ASC3_993cbbb4-b514-458d-9c46-81523bcad602"}
Request Header for Post:
UserAgent: HTTP Client
Content-Type: application/json
Request-Date: 2017-03-14 10:40:40
HTTP/1.1 500 Internal Server Error
STATUS CODE:500
Response Header:
Key : Content-Type ,Value : application/json
Key : Date ,Value : Tue, 14 Mar 2017 05:10:35 GMT
Key : Server ,Value : WildFly/10
Key : X-Powered-By ,Value : Undertow/1
Key : Content-Length ,Value : 113
Key : Connection ,Value : keep-alive
Response:{"errorCode":404,"errorMessage":"clinicAppointments/patientSearch  1.2 is unsupported,please upgrade to 2.0,1.3"}
Failure list
Done
Done
UseCase :PatientSearchVer12 [Failure]
]]></system-out>
  </testcase>
  <testcase name="appointmentHomeDoctorVer12" classname="com.tata.scripts.SyntheticMonitoring" time="5.148">
    <failure message="JSONObject[&quot;bookedSlots&quot;] not found." type="org.json.JSONException">org.json.JSONException: JSONObject["bookedSlots"] not found.
	at com.tata.scripts.SyntheticMonitoring.appointmentHomeDoctorVer12(SyntheticMonitoring.java:286)
</failure>
    <system-out><![CDATA[UseCase :appointmentHomeDoctorVer12 [Start]
mailUrl http://publicnlb-346685869.ap-south-1.elb.amazonaws.com:9090/HPPClinicsAppointmentsRestApp/rest/clinicAppointments/1.2/appointmentHomeDoctor
begin
request url  http://publicnlb-346685869.ap-south-1.elb.amazonaws.com:9090/HPPClinicsAppointmentsRestApp/rest/clinicAppointments/1.2/appointmentHomeDoctor
Request Message:{"organisationId":"11","clinicUserId":"44","userLoginName":"asc3","userId":"44","appointmentDate":"08-12-2016","token":"ASC3_993cbbb4-b514-458d-9c46-81523bcad602"}
Request Header for Post:
UserAgent: HTTP Client
Content-Type: application/json
Request-Date: 2017-03-14 10:40:46
HTTP/1.1 500 Internal Server Error
STATUS CODE:500
Response Header:
Key : Content-Type ,Value : application/json
Key : Date ,Value : Tue, 14 Mar 2017 05:10:41 GMT
Key : Server ,Value : WildFly/10
Key : X-Powered-By ,Value : Undertow/1
Key : transfer-encoding ,Value : chunked
Key : Connection ,Value : keep-alive
Response:{"errorCode":404,"errorMessage":"clinicAppointments/appointmentHomeDoctor  1.2 is unsupported,please upgrade to 2.0,1.3"}
Failure list
Done
Done
UseCase :appointmentHomeDoctorVer12 [Failure]
]]></system-out>
  </testcase>
  <testcase name="logoutVer12" classname="com.tata.scripts.SyntheticMonitoring" time="5.702">
    <failure message="JSONObject[&quot;successMessage&quot;] not found." type="org.json.JSONException">org.json.JSONException: JSONObject["successMessage"] not found.
	at com.tata.scripts.SyntheticMonitoring.logoutVer12(SyntheticMonitoring.java:316)
</failure>
    <system-out><![CDATA[UseCase :logoutVer12 [Start]
mailUrl http://publicnlb-346685869.ap-south-1.elb.amazonaws.com:9090/HPPClinicsCARestApp/rest/clinicAdministration/1.2/logout
begin
request url  http://publicnlb-346685869.ap-south-1.elb.amazonaws.com:9090/HPPClinicsCARestApp/rest/clinicAdministration/1.2/logout
Request Message:{"userLoginName":"asc3","token":"ASC3_993cbbb4-b514-458d-9c46-81523bcad602"}
Request Header for Post:
UserAgent: HTTP Client
Content-Type: application/json
Request-Date: 2017-03-14 10:40:51
HTTP/1.1 500 Internal Server Error
STATUS CODE:500
Response Header:
Key : Content-Type ,Value : application/json
Key : Date ,Value : Tue, 14 Mar 2017 05:10:47 GMT
Key : Server ,Value : WildFly/10
Key : X-Powered-By ,Value : Undertow/1
Key : Content-Length ,Value : 108
Key : Connection ,Value : keep-alive
Response:{"errorCode":404,"errorMessage":"clinicAdministration/logout  1.2 is unsupported,please upgrade to 2.0,1.3"}
Failure list
Done
Done
UseCase :logoutVer12 [Failure]
]]></system-out>
  </testcase>
  <testcase name="loginVer13" classname="com.tata.scripts.SyntheticMonitoring" time="0.516"/>
  <testcase name="PatientSearchVer13" classname="com.tata.scripts.SyntheticMonitoring" time="0.941"/>
  <testcase name="appointmentHomeDoctorVer13" classname="com.tata.scripts.SyntheticMonitoring" time="6.116">
    <failure message="JSONObject[&quot;bookedSlots&quot;] not found." type="org.json.JSONException">org.json.JSONException: JSONObject["bookedSlots"] not found.
	at com.tata.scripts.SyntheticMonitoring.appointmentHomeDoctorVer13(SyntheticMonitoring.java:421)
</failure>
    <system-out><![CDATA[UseCase :appointmentHomeDoctorVer13 [Start]
mailUrl http://publicnlb-346685869.ap-south-1.elb.amazonaws.com:9090/HPPClinicsAppointmentsRestApp/rest/clinicAppointments/1.3/appointmentHomeDoctor
begin
request url  http://publicnlb-346685869.ap-south-1.elb.amazonaws.com:9090/HPPClinicsAppointmentsRestApp/rest/clinicAppointments/1.3/appointmentHomeDoctor
Request Message:{"organisationId":"11","clinicUserId":"44","userLoginName":"asc3","userId":"44","appointmentDate":"08-12-2016","token":"ASC3_adab9126-fd15-4579-bbf7-cfd841c24750"}
Request Header for Post:
UserAgent: HTTP Client
Content-Type: application/json
Request-Date: 2017-03-14 10:40:58
HTTP/1.1 500 Internal Server Error
STATUS CODE:500
Response Header:
Key : Content-Type ,Value : application/json
Key : Date ,Value : Tue, 14 Mar 2017 05:10:54 GMT
Key : Server ,Value : WildFly/10
Key : X-Powered-By ,Value : Undertow/1
Key : Content-Length ,Value : 82
Key : Connection ,Value : keep-alive
Response:{"errorCode":10058,"errorMessage":"Doctor hasn't provided timings for this date."}
Failure list
Done
Done
UseCase :appointmentHomeDoctorVer13 [Failure]
]]></system-out>
  </testcase>
  <testcase name="logoutVer13" classname="com.tata.scripts.SyntheticMonitoring" time="0.51"/>
</testsuite>