-------------------------------------------------------------------------------
Test set: TestSuite
-------------------------------------------------------------------------------
Tests run: 12, Failures: 6, Errors: 0, Skipped: 0, Time elapsed: 45.865 sec <<< FAILURE! - in TestSuite
appointmentHomeDoctor(com.tata.scripts.SyntheticMonitoring)  Time elapsed: 7.58 sec  <<< FAILURE!
org.json.JSONException: JSONObject["bookedSlots"] not found.
	at com.tata.scripts.SyntheticMonitoring.appointmentHomeDoctor(SyntheticMonitoring.java:151)

loginVer12(com.tata.scripts.SyntheticMonitoring)  Time elapsed: 8.931 sec  <<< FAILURE!
org.json.JSONException: JSONObject["token"] not found.
	at com.tata.scripts.SyntheticMonitoring.loginVer12(SyntheticMonitoring.java:210)

PatientSearchVer12(com.tata.scripts.SyntheticMonitoring)  Time elapsed: 6.241 sec  <<< FAILURE!
org.json.JSONException: JSONObject["patientList"] not found.
	at com.tata.scripts.SyntheticMonitoring.PatientSearchVer12(SyntheticMonitoring.java:253)

appointmentHomeDoctorVer12(com.tata.scripts.SyntheticMonitoring)  Time elapsed: 5.148 sec  <<< FAILURE!
org.json.JSONException: JSONObject["bookedSlots"] not found.
	at com.tata.scripts.SyntheticMonitoring.appointmentHomeDoctorVer12(SyntheticMonitoring.java:286)

logoutVer12(com.tata.scripts.SyntheticMonitoring)  Time elapsed: 5.702 sec  <<< FAILURE!
org.json.JSONException: JSONObject["successMessage"] not found.
	at com.tata.scripts.SyntheticMonitoring.logoutVer12(SyntheticMonitoring.java:316)

appointmentHomeDoctorVer13(com.tata.scripts.SyntheticMonitoring)  Time elapsed: 6.116 sec  <<< FAILURE!
org.json.JSONException: JSONObject["bookedSlots"] not found.
	at com.tata.scripts.SyntheticMonitoring.appointmentHomeDoctorVer13(SyntheticMonitoring.java:421)

